{
	"xAxis": {
		"data": ["01/01", "02/01", "03/01", "04/01", "05/01", "06/01", "07/01", "08/01", "09/01", "10/01", "11/01", "12/01", "13/01", "14/01", "15/01"]
	},
	"serie1": {
	    "name": "Viagens do dia",
	    "color": "#DDD",
	    "data": [12, 44, 55, 66, 77, 88, 44, 33, 4, 2, 21, 32, 43, 23, 10],
	    "pointPadding": 0
	},
	"serie2": {
	    "name": "Entregas realizadas",
	    "color": "#88A643",
	    "data": [9, 32, 42, 78, 10, 9, 22, 32, 1, 0, 15, 22, 35, 20, 1],
	    "pointPadding": 0.2
	}
}
