{
	"data":[
		{
			"DT_RowId": "tr1",
			"status" : "ATIVO",
			"nome" : "Administrador",
			"tipo_acesso": "ORBE",
			"embarcador": "Embarcador 1"
		},
		{
			"DT_RowId" : "tr2",
			"status" : "INATIVO",
			"nome" : "Financeiro",
			"tipo_acesso": "Embarcador",
			"embarcador": "Embarcador A"
		},
		{
			"DT_RowId" : "tr3",
			"status" : "INATIVO",
			"nome" : "Administrador",
			"tipo_acesso": "Embarcador",
			"embarcador": "Embarcador A"
		}	]
}